{
  "iisSettings": {
    "windowsAuthentication": false,
    "anonymousAuthentication": true,
    "iisExpress": {
      "applicationUrl": "https://0.0.0.0.0:5001;http://0.0.0.0.0:5000",
      "sslPort": 44315
    }
  },
  "profiles": {
    "Telegram.Bot.Examples.WebHook": {
      "commandName": "Project",
      "environmentVariables": {
        "ASPNETCORE_ENVIRONMENT": "Development"
      },
      "applicationUrl": "https://0.0.0.0.0:5001;http://0.0.0.0.0:8443",
    }
  }
}
